('/Users/Alex/Programming/URLtoMp3/musicwebapp/build/playlistdownloader/playlistdownloader',
 True,
 False,
 True,
 None,
 None,
 False,
 False,
 None,
 True,
 'playlistdownloader.pkg',
 [('out00-PYZ.pyz',
   '/Users/Alex/Programming/URLtoMp3/musicwebapp/build/playlistdownloader/out00-PYZ.pyz',
   'PYZ'),
  ('_struct',
   '/Library/Frameworks/Python.framework/Versions/2.7/lib/python2.7/lib-dynload/_struct.so',
   'EXTENSION'),
  ('zlib',
   '/Library/Frameworks/Python.framework/Versions/2.7/lib/python2.7/lib-dynload/zlib.so',
   'EXTENSION'),
  ('struct',
   '/Library/Frameworks/Python.framework/Versions/2.7/lib/python2.7/struct.pyc',
   'PYMODULE'),
  ('pyimod01_os_path',
   '/Library/Frameworks/Python.framework/Versions/2.7/lib/python2.7/site-packages/PyInstaller/loader/pyimod01_os_path.pyc',
   'PYMODULE'),
  ('pyimod02_archive',
   '/Library/Frameworks/Python.framework/Versions/2.7/lib/python2.7/site-packages/PyInstaller/loader/pyimod02_archive.pyc',
   'PYMODULE'),
  ('pyimod03_importers',
   '/Library/Frameworks/Python.framework/Versions/2.7/lib/python2.7/site-packages/PyInstaller/loader/pyimod03_importers.pyc',
   'PYMODULE'),
  ('pyiboot01_bootstrap',
   '/Library/Frameworks/Python.framework/Versions/2.7/lib/python2.7/site-packages/PyInstaller/loader/pyiboot01_bootstrap.py',
   'PYSOURCE'),
  ('pyi_rth_pkgres',
   '/Library/Frameworks/Python.framework/Versions/2.7/lib/python2.7/site-packages/PyInstaller/loader/rthooks/pyi_rth_pkgres.py',
   'PYSOURCE'),
  ('pyi_rth_django',
   '/Library/Frameworks/Python.framework/Versions/2.7/lib/python2.7/site-packages/PyInstaller/loader/rthooks/pyi_rth_django.py',
   'PYSOURCE'),
  ('playlistdownloader',
   '/Users/Alex/Programming/URLtoMp3/musicwebapp/playlistdownloader.py',
   'PYSOURCE')],
 [],
 False,
 False,
 1497117162,
 [('run',
   '/Library/Frameworks/Python.framework/Versions/2.7/lib/python2.7/site-packages/PyInstaller/bootloader/Darwin-32bit/run',
   'EXECUTABLE')])
